…
``` r
nyc_subway = select(nyc_subway, line:entry, vending, ada) #Keep specified variables
nyc_subway |>
  mutate ( 
    entry =  ifelse(pull(nyc_subway, var="entry")=="YES",TRUE,FALSE)
     )
```

    ## # A tibble: 1,868 × 19
    ##    line     station_name station_latitude station_longitude route1 route2 route3
    ##    <chr>    <chr>                   <dbl>             <dbl> <chr>  <chr>  <chr> 
    ##  1 4 Avenue 25th St                  40.7             -74.0 R      <NA>   <NA>  
    ##  2 4 Avenue 25th St                  40.7             -74.0 R      <NA>   <NA>  
    ##  3 4 Avenue 36th St                  40.7             -74.0 N      R      <NA>  
    ##  4 4 Avenue 36th St                  40.7             -74.0 N      R      <NA>  
    ##  5 4 Avenue 36th St                  40.7             -74.0 N      R      <NA>  
    ##  6 4 Avenue 45th St                  40.6             -74.0 R      <NA>   <NA>  
    ##  7 4 Avenue 45th St                  40.6             -74.0 R      <NA>   <NA>  
    ##  8 4 Avenue 45th St                  40.6             -74.0 R      <NA>   <NA>  
    ##  9 4 Avenue 45th St                  40.6             -74.0 R      <NA>   <NA>  
    ## 10 4 Avenue 53rd St                  40.6             -74.0 R      <NA>   <NA>  
    ## # ℹ 1,858 more rows
    ## # ℹ 12 more variables: route4 <chr>, route5 <chr>, route6 <chr>, route7 <chr>,
    ## #   route8 <dbl>, route9 <dbl>, route10 <dbl>, route11 <dbl>,
    ## #   entrance_type <chr>, entry <lgl>, vending <chr>, ada <lgl>

``` r
#Convert the "entry" variable to a logical variable where YES is True and NO is False

#Identify how many distinct stops are present 
distinct(
  select(
    nyc_subway, c(line, station_name)
    )
  )
```

    ## # A tibble: 465 × 2
    ##    line     station_name            
    ##    <chr>    <chr>                   
    ##  1 4 Avenue 25th St                 
    ##  2 4 Avenue 36th St                 
    ##  3 4 Avenue 45th St                 
    ##  4 4 Avenue 53rd St                 
    ##  5 4 Avenue 59th St                 
    ##  6 4 Avenue 77th St                 
    ##  7 4 Avenue 86th St                 
    ##  8 4 Avenue 95th St                 
    ##  9 4 Avenue 9th St                  
    ## 10 4 Avenue Atlantic Av-Barclays Ctr
    ## # ℹ 455 more rows
…
bake_off_bakers = mutate(bake_off_bakers, baker = as.character(baker))

#Bakes
bake_off_bakes = janitor::clean_names(bake_off_bakes, case = "old_janitor") #clean variable names
bake_off_bakes = mutate(bake_off_bakes, baker=replace(pull(bake_off_bakes, var="baker"),pull(bake_off_bakes, var="baker")=='"Jo"',"Jo")) #remove quotation marks off "Jo" in the table
       
#Results
bake_off_results |>
  janitor::row_to_names(row_number = 67) |>
  na.omit(bake_off_results)
```

    ## # A tibble: 662 × 5
    ##    `2`   `1`   Joanne    `11`  IN        
    ##    <chr> <chr> <chr>     <chr> <chr>     
    ##  1 2     1     Mary-Anne 4     IN        
    ##  2 2     1     Robert    3     IN        
    ##  3 2     1     Simon     9     IN        
    ##  4 2     1     Urvashi   7     IN        
    ##  5 2     1     Yasmin    5     IN        
    ##  6 2     1     Keith     12    OUT       
    ##  7 2     1     Holly     1     STAR BAKER
    ##  8 2     2     Ben       1     IN        
    ##  9 2     2     Holly     4     IN        
    ## 10 2     2     Ian       2     IN        
    ## # ℹ 652 more rows
…
    ## Warning: The `value` argument of `names<-()` must be a character vector as of tibble
    ## 3.0.0.
    ## This warning is displayed once every 8 hours.
    ## Call `lifecycle::last_lifecycle_warnings()` to see where this warning was
    ## generated.

``` r
bake_off_results <- bake_off_results[-c(1:2),]
bake_off_results |>
  mutate(series = as.double(series))
```

    ## # A tibble: 1,136 × 5
    ##    series episode baker     technical result
    ##     <dbl> <chr>   <chr>     <chr>     <chr> 
    ##  1      1 1       Annetha   2         IN    
    ##  2      1 1       David     3         IN    
    ##  3      1 1       Edd       1         IN    
    ##  4      1 1       Jasminder <NA>      IN    
    ##  5      1 1       Jonathan  9         IN    
    ##  6      1 1       Louise    <NA>      IN    
    ##  7      1 1       Miranda   8         IN    
    ##  8      1 1       Ruth      <NA>      IN    
    ##  9      1 1       Lea       10        OUT   
    ## 10      1 1       Mark      <NA>      OUT   
    ## # ℹ 1,126 more rows
…
